EDS222 week 6 office hours
…
tibble(dist2coast, p, endangered) %>% 
  mutate(likelihood = dbinom(endangered, size = 1, prob = p))

# A tibble: 100 × 4
   dist2coast     p endangered likelihood
        <dbl> <dbl>      <int>      <dbl>
 1      40.8  0.956          1      0.956
 2      32.8  0.907          1      0.907
 3      31.4  0.895          1      0.895
 4      20.3  0.736          1      0.736
 5      69.2  0.997          1      0.997
 6      68.6  0.997          1      0.997
 7      97.4  1.00           1      1.00 
 8      53.1  0.987          1      0.987
 9       4.47 0.365          0      0.635
10      76.7  0.999          1      0.999
# ℹ 90 more rows
…
